Assignment Lab Session 3
…
2. Wrangel the airquality data (4 points)

Transform the airquality dataset into long-format, with a key column indicating the type of measurement and a value column giving the actual measurements (while keeping the Day, Month, and ID columns).

airquality_long <- airquality %>%
  mutate(ID = 1:nrow(airquality)) %>% 
  relocate(ID, Day) %>% #rearrange column order
  pivot_longer(-c(Day, Month, ID, Month.factor),
               names_to = "variable",
               values_to = "measurement")
airquality_long

## # A tibble: 612 x 6
##       ID   Day Month Month.factor variable measurement
##    <int> <int> <int> <fct>        <chr>          <dbl>
##  1     1     1     5 May          Ozone           41  
##  2     1     1     5 May          Solar.R        190  
##  3     1     1     5 May          Wind             7.4
##  4     1     1     5 May          Temp            67  
##  5     2     2     5 May          Ozone           36  
##  6     2     2     5 May          Solar.R        118  
##  7     2     2     5 May          Wind             8  
##  8     2     2     5 May          Temp            72  
##  9     3     3     5 May          Ozone           12  
## 10     3     3     5 May          Solar.R        149  
## # ... with 602 more rows
…
